VHDL2/simulation/qsim/ShifRegister.msim.vcd
$comment
	File created using the following command:
		vcd file ShifRegister.msim.vcd -direction
$end
$date
	Thu Jul 29 10:17:18 2021
$end
$version
	ModelSim Version 2020.1
$end
$timescale
	1ps
$end

$scope module shifregister_vhd_vec_tst $end
$var wire 1 ! clk $end
$var wire 1 " result [3] $end
$var wire 1 # result [2] $end
$var wire 1 $ result [1] $end
$var wire 1 % result [0] $end
$var wire 1 & segmentIn [6] $end
$var wire 1 ' segmentIn [5] $end
$var wire 1 ( segmentIn [4] $end
$var wire 1 ) segmentIn [3] $end
$var wire 1 * segmentIn [2] $end
$var wire 1 + segmentIn [1] $end
$var wire 1 , segmentIn [0] $end
$var wire 1 - segmentOut [6] $end
$var wire 1 . segmentOut [5] $end
$var wire 1 / segmentOut [4] $end
$var wire 1 0 segmentOut [3] $end
$var wire 1 1 segmentOut [2] $end
$var wire 1 2 segmentOut [1] $end
$var wire 1 3 segmentOut [0] $end
$var wire 1 4 SW [7] $end
$var wire 1 5 SW [6] $end
$var wire 1 6 SW [5] $end
$var wire 1 7 SW [4] $end
$var wire 1 8 SW [3] $end
$var wire 1 9 SW [2] $end
$var wire 1 : SW [1] $end
$var wire 1 ; SW [0] $end

$scope module i1 $end
$var wire 1 < gnd $end
$var wire 1 = vcc $end
$var wire 1 > unknown $end
$var wire 1 ? devoe $end
$var wire 1 @ devclrn $end
$var wire 1 A devpor $end
$var wire 1 B ww_devoe $end
$var wire 1 C ww_devclrn $end
$var wire 1 D ww_devpor $end
$var wire 1 E ww_clk $end
$var wire 1 F ww_SW [7] $end
$var wire 1 G ww_SW [6] $end
$var wire 1 H ww_SW [5] $end
$var wire 1 I ww_SW [4] $end
$var wire 1 J ww_SW [3] $end
$var wire 1 K ww_SW [2] $end
$var wire 1 L ww_SW [1] $end
$var wire 1 M ww_SW [0] $end
$var wire 1 N ww_result [3] $end
$var wire 1 O ww_result [2] $end
$var wire 1 P ww_result [1] $end
$var wire 1 Q ww_result [0] $end
$var wire 1 R ww_segmentIn [6] $end
$var wire 1 S ww_segmentIn [5] $end
$var wire 1 T ww_segmentIn [4] $end
$var wire 1 U ww_segmentIn [3] $end
$var wire 1 V ww_segmentIn [2] $end
$var wire 1 W ww_segmentIn [1] $end
$var wire 1 X ww_segmentIn [0] $end
$var wire 1 Y ww_segmentOut [6] $end
$var wire 1 Z ww_segmentOut [5] $end
$var wire 1 [ ww_segmentOut [4] $end
$var wire 1 \ ww_segmentOut [3] $end
$var wire 1 ] ww_segmentOut [2] $end
$var wire 1 ^ ww_segmentOut [1] $end
$var wire 1 _ ww_segmentOut [0] $end
$var wire 1 ` \~QUARTUS_CREATED_GND~I_combout\ $end
$var wire 1 a \clk~input_o\ $end
$var wire 1 b \clk~inputCLKENA0_outclk\ $end
$var wire 1 c \SW[6]~input_o\ $end
$var wire 1 d \SW[7]~input_o\ $end
$var wire 1 e \SW[0]~input_o\ $end
$var wire 1 f \SW[1]~input_o\ $end
$var wire 1 g \SW[2]~input_o\ $end
$var wire 1 h \SW[3]~input_o\ $end
$var wire 1 i \SW[5]~input_o\ $end
$var wire 1 j \SW[4]~input_o\ $end
$var wire 1 k \Shifter1|Mux0~0_combout\ $end
$var wire 1 l \Shifter1|R[0]~0_combout\ $end
$var wire 1 m \Shifter1|Mux1~0_combout\ $end
$var wire 1 n \Shifter1|Mux2~0_combout\ $end
$var wire 1 o \Shifter1|Mux3~0_combout\ $end
$var wire 1 p \SevenSegments0|Mux6~0_combout\ $end
$var wire 1 q \SevenSegments0|Mux5~0_combout\ $end
$var wire 1 r \SevenSegments0|Mux4~0_combout\ $end
$var wire 1 s \SevenSegments0|Mux3~0_combout\ $end
$var wire 1 t \SevenSegments0|Mux2~0_combout\ $end
$var wire 1 u \SevenSegments0|Mux1~0_combout\ $end
$var wire 1 v \SevenSegments0|Mux0~0_combout\ $end
$var wire 1 w \SevenSegments1|Mux6~0_combout\ $end
$var wire 1 x \SevenSegments1|Mux5~0_combout\ $end
$var wire 1 y \SevenSegments1|Mux4~0_combout\ $end
$var wire 1 z \SevenSegments1|Mux3~0_combout\ $end
$var wire 1 { \SevenSegments1|Mux2~0_combout\ $end
$var wire 1 | \SevenSegments1|Mux1~0_combout\ $end
$var wire 1 } \SevenSegments1|Mux0~0_combout\ $end
$var wire 1 ~ \Shifter1|R\ [3] $end
$var wire 1 !! \Shifter1|R\ [2] $end
$var wire 1 "! \Shifter1|R\ [1] $end
$var wire 1 #! \Shifter1|R\ [0] $end
$var wire 1 $! \ALT_INV_SW[7]~input_o\ $end
$var wire 1 %! \ALT_INV_SW[0]~input_o\ $end
$var wire 1 &! \ALT_INV_SW[6]~input_o\ $end
$var wire 1 '! \ALT_INV_SW[5]~input_o\ $end
$var wire 1 (! \Shifter1|ALT_INV_R\ [3] $end
$var wire 1 )! \Shifter1|ALT_INV_R\ [2] $end
$var wire 1 *! \Shifter1|ALT_INV_R\ [1] $end
$var wire 1 +! \Shifter1|ALT_INV_R\ [0] $end
$var wire 1 ,! \SevenSegments0|ALT_INV_Mux0~0_combout\ $end
$var wire 1 -! \SevenSegments1|ALT_INV_Mux0~0_combout\ $end
$var wire 1 .! \ALT_INV_SW[1]~input_o\ $end
$var wire 1 /! \ALT_INV_SW[2]~input_o\ $end
$var wire 1 0! \ALT_INV_SW[3]~input_o\ $end
$var wire 1 1! \ALT_INV_SW[4]~input_o\ $end
$upscope $end
$upscope $end
$enddefinitions $end
#0
$dumpvars
0!
0<
1=
x>
1?
1@
1A
1B
1C
1D
0E
x`
0a
0b
1c
1d
0e
1f
0g
1h
0i
0j
0k
1l
1m
0n
1o
0p
1q
0r
0s
1t
0u
1v
0w
0x
0y
0z
0{
0|
0}
0$!
1%!
0&!
1'!
0,!
1-!
0.!
1/!
00!
11!
14
15
06
07
18
09
1:
0;
1F
1G
0H
0I
1J
0K
1L
0M
0N
0O
0P
0Q
0R
0S
1T
0U
0V
1W
0X
1Y
0Z
0[
0\
0]
0^
0_
0~
0!!
0"!
0#!
1(!
1)!
1*!
1+!
0"
0#
0$
0%
0&
0'
1(
0)
0*
1+
0,
1-
0.
0/
00
01
02
03
$end
#15000
1!
1E
1a
1b
1!!
1#!
0+!
0)!
1x
1{
1}
0-!
1Q
1O
1%
1#
1[
1^
0Y
12
1/
0-
#30000
0!
0E
0a
0b
#45000
1!
1E
1a
1b
#60000
0!
0E
0a
0b
#75000
1!
1E
1a
1b
#90000
0!
0E
0a
0b
#100000
05
08
0:
0L
0J
0G
0c
0h
0f
1.!
10!
1&!
1n
0m
0o
0q
0t
0v
1,!
0T
0W
1R
0+
0(
1&
#105000
1!
1E
1a
1b
0!!
1"!
0#!
1+!
0*!
1)!
1o
0n
0x
1y
0{
1|
0Q
1P
0O
0%
1$
0#
1Z
0[
1]
0^
02
11
0/
1.
#120000
0!
0E
0a
0b
#135000
1!
1E
1a
1b
0"!
1#!
0+!
1*!
0o
1w
0y
1z
1{
0}
1-!
1Q
0P
1%
0$
1[
1\
0]
1_
1Y
13
01
10
1/
1-
#150000
0!
0E
0a
0b
#165000
1!
1E
1a
1b
0#!
1+!
0w
0z
0{
0|
0Q
0%
0Z
0[
0\
0_
03
00
0/
0.
#180000
0!
0E
0a
0b
#195000
1!
1E
1a
1b
#210000
0!
0E
0a
0b
#225000
1!
1E
1a
1b
#240000
0!
15
18
16
1;
0E
1M
1J
1H
1G
1c
1i
1h
1e
0a
0b
0%!
00!
0'!
0&!
1m
1p
1s
1t
1v
0,!
1T
1U
1X
0R
1,
1)
1(
0&
#255000
1!
1E
1a
1b
1!!
0)!
1w
1z
1{
1}
0-!
1O
1#
1[
1\
1_
0Y
13
10
1/
0-
#270000
0!
0E
0a
0b
#285000
1!
1E
1a
1b
#300000
0!
0E
0a
0b
#315000
1!
1E
1a
1b
#330000
0!
0E
0a
0b
#340000
08
04
0J
0F
0d
0h
10!
1$!
1k
1o
0m
0p
0s
0t
0v
1,!
0T
0U
0X
1R
0,
0)
0(
1&
#345000
1!
1E
1a
1b
1~
0!!
1#!
0+!
1)!
0(!
0k
1n
0w
1Q
0O
1N
1%
0#
1"
0_
03
#360000
0!
0E
0a
0b
#375000
1!
1E
1a
1b
0~
1"!
0*!
1(!
1m
0z
1|
1P
0N
1$
0"
1Z
0\
00
1.
#390000
0!
0E
0a
0b
#405000
1!
1E
1a
1b
1!!
0)!
1k
1z
0}
1-!
1O
1#
1\
1Y
10
1-
#420000
0!
0E
0a
0b
#435000
1!
1E
1a
1b
1~
0(!
1x
1y
0{
0|
1}
0-!
1N
1"
0Z
0[
1]
1^
0Y
12
11
0/
0.
0-
#450000
0!
0E
0a
0b
#465000
1!
1E
1a
1b
#480000
0!
0E
0a
0b
#495000
1!
1E
1a
1b
#500000
05
06
0;
0M
0H
0G
0c
0i
0e
1%!
1'!
1&!
0l
0o
#510000
0!
0E
0a
0b
#525000
1!
1E
1a
1b
#540000
0!
0E
0a
0b
#555000
1!
1E
1a
1b
#570000
0!
0E
0a
0b
#585000
1!
1E
1a
1b
#600000
0!
0E
0a
0b
#615000
1!
1E
1a
1b
#630000
0!
0E
0a
0b
#645000
1!
1E
1a
1b
#660000
0!
0E
0a
0b
#675000
1!
1E
1a
1b
#690000
0!
0E
0a
0b
#705000
1!
1E
1a
1b
#720000
0!
0E
0a
0b
#735000
1!
1E
1a
1b
#750000
0!
0E
0a
0b
#765000
1!
1E
1a
1b
#780000
0!
0E
0a
0b
#795000
1!
1E
1a
1b
#810000
0!
0E
0a
0b
#825000
1!
1E
1a
1b
#840000
0!
0E
0a
0b
#855000
1!
1E
1a
1b
#870000
0!
0E
0a
0b
#885000
1!
1E
1a
1b
#900000
0!
0E
0a
0b
#915000
1!
1E
1a
1b
#930000
0!
0E
0a
0b
#945000
1!
1E
1a
1b
#960000
0!
0E
0a
0b
#975000
1!
1E
1a
1b
#990000
0!
0E
0a
0b
